…
``` r
#count the number of aisle_id
instacart %>% 
  janitor::clean_names() %>%               ##clean the data
  group_by(aisle_id) %>%                   ##according aisle_id to group
  summarize(aisle_count = n()) %>%         ##count the aisle id appear time
  arrange(desc(aisle_count))               ##according the aisle_cout from large to small
```

    ## # A tibble: 134 x 2
    ##    aisle_id aisle_count
    ##       <int>       <int>
    ##  1       83      150609
    ##  2       24      150473
    ##  3      123       78493
    ##  4      120       55240
    ##  5       21       41699
    ##  6      115       36617
    ##  7       84       32644
    ##  8      107       31269
    ##  9       91       26240
    ## 10      112       23635
    ## # ... with 124 more rows
